<?xml version="1.0" encoding="utf-8"?>
<!-- Generator: Adobe Illustrator 15.1.0, SVG Export Plug-In . SVG Version: 6.00 Build 0)  -->
<!DOCTYPE svg PUBLIC "-//W3C//DTD SVG 1.1//EN" "http://www.w3.org/Graphics/SVG/1.1/DTD/svg11.dtd">
<svg version="1.1" id="Layer_1" xmlns="http://www.w3.org/2000/svg" xmlns:xlink="http://www.w3.org/1999/xlink" x="0px" y="0px"
	 width="50px" height="50.134px" viewBox="0 0 50 50.134" enable-background="new 0 0 50 50.134" xml:space="preserve">
<g>
	<defs>
		<rect id="SVGID_1_" width="50" height="50.134"/>
	</defs>
	<clipPath id="SVGID_2_">
		<use xlink:href="#SVGID_1_"  overflow="visible"/>
	</clipPath>
	<path clip-path="url(#SVGID_2_)" fill="#DDE3E5" d="M49,0.134H1c-0.552,0-1,0.448-1,1v3.167v3.272v41.561c0,0.552,0.448,1,1,1h48
		c0.552,0,1-0.448,1-1V7.573V4.301V1.134C50,0.582,49.552,0.134,49,0.134"/>
	<path clip-path="url(#SVGID_2_)" fill="#757D81" d="M50,4.167V1c0-0.552-0.448-1-1-1H1C0.448,0,0,0.447,0,1v3.167v3.273v0.977h50
		V7.439V4.167z"/>
	<path clip-path="url(#SVGID_2_)" fill="#FEFEFE" d="M5.96,4.149c0-0.817-0.663-1.48-1.48-1.48S3,3.333,3,4.149
		s0.663,1.48,1.48,1.48S5.96,4.966,5.96,4.149"/>
	<path clip-path="url(#SVGID_2_)" fill="#FEFEFE" d="M10.413,4.149c0-0.817-0.663-1.48-1.48-1.48s-1.48,0.663-1.48,1.48
		s0.663,1.48,1.48,1.48S10.413,4.966,10.413,4.149"/>
	<path clip-path="url(#SVGID_2_)" fill="#FEFEFE" d="M14.865,4.149c0-0.817-0.663-1.48-1.48-1.48c-0.817,0-1.48,0.663-1.48,1.48
		s0.663,1.48,1.48,1.48C14.202,5.629,14.865,4.966,14.865,4.149"/>
	<path clip-path="url(#SVGID_2_)" fill="#757D81" d="M38.264,28.501c0,7.325-5.938,13.264-13.264,13.264
		c-7.325,0-13.264-5.938-13.264-13.264S17.675,15.238,25,15.238C32.325,15.238,38.264,21.176,38.264,28.501 M18.109,27.85
		c0.062-1.856,0.383-3.634,0.923-5.277l-4.431-0.005c-0.898,1.572-1.451,3.367-1.554,5.282H18.109z M24.352,22.569h-3.948
		c-0.589,1.648-0.935,3.421-1,5.281h4.948V22.569z M24.352,16.548c-1.394,1.246-2.571,2.856-3.421,4.714h3.421V16.548z
		 M15.459,21.262h4.063c0.684-1.634,1.624-3.149,2.706-4.403C19.433,17.49,17.042,19.175,15.459,21.262 M36.953,27.85
		c-0.103-1.915-0.656-3.71-1.554-5.282l-4.433,0.005c0.54,1.643,0.862,3.42,0.924,5.277H36.953z M25.647,27.85h4.949
		c-0.065-1.859-0.412-3.633-1-5.281h-3.949V27.85z M25.647,21.262h3.422c-0.851-1.858-2.027-3.468-3.422-4.715V21.262z
		 M27.771,16.86c1.083,1.253,2.022,2.768,2.707,4.402h4.063C32.958,19.175,30.567,17.49,27.771,16.86 M13.047,29.152
		c0.103,1.914,0.656,3.709,1.554,5.281l4.431-0.005c-0.54-1.642-0.861-3.419-0.923-5.277L13.047,29.152L13.047,29.152z
		 M24.352,29.152h-4.948c0.065,1.86,0.411,3.634,1,5.281h3.948V29.152z M24.352,35.741H20.93c0.851,1.857,2.028,3.468,3.422,4.714
		V35.741z M22.228,40.143c-1.082-1.254-2.023-2.768-2.706-4.401h-4.063C17.042,37.827,19.433,39.513,22.228,40.143 M31.891,29.152
		c-0.062,1.857-0.384,3.635-0.924,5.277l4.432,0.004c0.898-1.571,1.452-3.367,1.554-5.281H31.891z M25.647,34.434h3.949
		c0.589-1.647,0.935-3.421,1-5.281h-4.949V34.434z M25.647,40.455c1.395-1.246,2.571-2.856,3.422-4.714h-3.422V40.455z
		 M34.541,35.741h-4.063c-0.685,1.634-1.624,3.147-2.707,4.401C30.567,39.513,32.958,37.827,34.541,35.741"/>
</g>
</svg>
